module kmf_test

go 1.20

require (
	github.com/gin-gonic/gin v1.9.1
	github.com/ilyakaznacheev/cleanenv v1.5.0
	github.com/pkg/errors v0.9.1
	github.com/rs/zerolog v1.32.0
	github.com/swaggo/files v1.0.1
	github.com/swaggo/gin-swagger v1.6.0
	gorm.io/driver/postgres v1.5.6
	gorm.io/gorm v1.25.7
)

require (
	github.com/BurntSushi/toml v1.2.1 // indirect
	github.com/KyleBanks/depth v1.2.1 // indirect
	github.com/PuerkitoBio/purell v1.1.1 // indirect
	github.com/PuerkitoBio/urlesc v0.0.0-20170810143723-de5bf2ad4578 // indirect
	github.com/bytedance/sonic v1.9.1 // indirect
	github.com/chenzhuoyu/base64x v0.0.0-20221115062448-fe3a3abad311 // indirect
	github.com/gabriel-vasile/mimetype v1.4.2 // indirect
	github.com/gin-contrib/sse v0.1.0 // indirect
	github.com/go-openapi/jsonpointer v0.19.5 // indirect
	github.com/go-openapi/jsonreference v0.19.6 // indirect
	github.com/go-openapi/spec v0.20.4 // indirect
	github.com/go-openapi/swag v0.19.15 // indirect
	github.com/go-playground/locales v0.14.1 // indirect
	github.com/go-playground/universal-translator v0.18.1 // indirect
	github.com/go-playground/validator/v10 v10.14.0 // indirect
	github.com/goccy/go-json v0.10.2 // indirect
	github.com/google/go-cmp v0.5.8 // indirect
	github.com/jackc/pgpassfile v1.0.0 // indirect
	github.com/jackc/pgservicefile v0.0.0-20221227161230-091c0ba34f0a // indirect
	github.com/jackc/pgx/v5 v5.4.3 // indirect
	github.com/jinzhu/inflection v1.0.0 // indirect
	github.com/jinzhu/now v1.1.5 // indirect
	github.com/joho/godotenv v1.5.1 // indirect
	github.com/josharian/intern v1.0.0 // indirect
	github.com/json-iterator/go v1.1.12 // indirect
	github.com/klauspost/cpuid/v2 v2.2.4 // indirect
	github.com/leodido/go-urn v1.2.4 // indirect
	github.com/mailru/easyjson v0.7.6 // indirect
	github.com/mattn/go-colorable v0.1.13 // indirect
	github.com/mattn/go-isatty v0.0.19 // indirect
	github.com/modern-go/concurrent v0.0.0-20180306012644-bacd9c7ef1dd // indirect
	github.com/modern-go/reflect2 v1.0.2 // indirect
	github.com/pelletier/go-toml/v2 v2.0.8 // indirect
	github.com/rogpeppe/go-internal v1.12.0 // indirect
	github.com/stretchr/testify v1.8.4 // indirect
	github.com/swaggo/swag v1.8.12 // indirect
	github.com/twitchyliquid64/golang-asm v0.15.1 // indirect
	github.com/ugorji/go/codec v1.2.11 // indirect
	golang.org/x/arch v0.3.0 // indirect
	golang.org/x/crypto v0.14.0 // indirect
	golang.org/x/net v0.10.0 // indirect
	golang.org/x/sys v0.15.0 // indirect
	golang.org/x/text v0.14.0 // indirect
	golang.org/x/tools v0.7.0 // indirect
	google.golang.org/protobuf v1.30.0 // indirect
	gopkg.in/yaml.v2 v2.4.0 // indirect
	gopkg.in/yaml.v3 v3.0.1 // indirect
	olympos.io/encoding/edn v0.0.0-20201019073823-d3554ca0b0a3 // indirect
)
